{'resume': None, 'train_classifier': False, 'train_classifier_on_target': False, 'method': 'TDAN', 'num_iterations': 20000, 'test_interval': 500, 'network': {'name': <class 'network.ResNetFc'>, 'params': {'resnet_name': 'ResNet50', 'use_bottleneck': True, 'bottleneck_dim': 256, 'new_cls': True, 'class_num': 65}}, 'optimizer': {'type': <class 'torch.optim.sgd.SGD'>, 'optim_params': {'lr': 0.001, 'momentum': 0.9, 'weight_decay': 0.0005, 'nesterov': True}, 'lr_type': 'inv', 'lr_param': {'lr': 0.001, 'gamma': 0.001, 'power': 0.75}}, 'dataset': 'office-home', 'data': {'source': {'list_path': 'data/office-home/Clipart.txt', 'batch_size': 36}, 'target': {'list_path': 'data/office-home/Product.txt', 'batch_size': 36}, 'test': {'list_path': 'data/office-home/Product.txt', 'batch_size': 4}}, 'prep': {'test_10crop': True, 'params': {'resize_size': 256, 'crop_size': 224}}, 'loss': {'lambda_transfer': 1.0, 'lambda_consistency': 10.0, 'ramp_up': 0.35, 'entropy': False, 'confidence': False, 'consistency': True, 'use_source_labels': True, 'consistency_on_domain': False}, 'consistency': {'aug_severity': 1, 'num_augs': 4, 'possible_augs': -1}, 'mean_teacher': False, 'output_for_test': True, 'snapshot_interval': 5000, 'output_path': 'snapshot/run1_officehome_clpr', 'out_file': <_io.TextIOWrapper name='snapshot/run1_officehome_clpr/log.txt' mode='w' encoding='UTF-8'>}
iter: 00499, precision: 0.58797
iter: 00999, precision: 0.59248
iter: 01499, precision: 0.61050
iter: 01999, precision: 0.60825
iter: 02499, precision: 0.62064
iter: 02999, precision: 0.60622
iter: 03499, precision: 0.64451
iter: 03999, precision: 0.64406
iter: 04499, precision: 0.66411
iter: 04999, precision: 0.67020
iter: 05499, precision: 0.67988
iter: 05999, precision: 0.68214
iter: 06499, precision: 0.67605
iter: 06999, precision: 0.68642
iter: 07499, precision: 0.68574
iter: 07999, precision: 0.69047
iter: 08499, precision: 0.69250
iter: 08999, precision: 0.69453
iter: 09499, precision: 0.69700
iter: 09999, precision: 0.70737
iter: 10499, precision: 0.70106
iter: 10999, precision: 0.70489
iter: 11499, precision: 0.70511
iter: 11999, precision: 0.70083
iter: 12499, precision: 0.70466
iter: 12999, precision: 0.70624
iter: 13499, precision: 0.70601
iter: 13999, precision: 0.70601
iter: 14499, precision: 0.70894
iter: 14999, precision: 0.70962
iter: 15499, precision: 0.71255
iter: 15999, precision: 0.71255
iter: 16499, precision: 0.71345
iter: 16999, precision: 0.71615
iter: 17499, precision: 0.71728
iter: 17999, precision: 0.71503
iter: 18499, precision: 0.71615
iter: 18999, precision: 0.71615
iter: 19499, precision: 0.71593
iter: 19999, precision: 0.71412

 Final best acc: 0.717279 

