{'resume': None, 'train_classifier': False, 'train_classifier_on_target': False, 'method': 'TDAN', 'num_iterations': 20000, 'test_interval': 500, 'network': {'name': <class 'network.ResNetFc'>, 'params': {'resnet_name': 'ResNet50', 'use_bottleneck': True, 'bottleneck_dim': 256, 'new_cls': True, 'class_num': 65}}, 'optimizer': {'type': <class 'torch.optim.sgd.SGD'>, 'optim_params': {'lr': 0.001, 'momentum': 0.9, 'weight_decay': 0.0005, 'nesterov': True}, 'lr_type': 'inv', 'lr_param': {'lr': 0.001, 'gamma': 0.001, 'power': 0.75}}, 'dataset': 'office-home', 'data': {'source': {'list_path': 'data/office-home/Real_World.txt', 'batch_size': 36}, 'target': {'list_path': 'data/office-home/Clipart.txt', 'batch_size': 36}, 'test': {'list_path': 'data/office-home/Clipart.txt', 'batch_size': 4}}, 'prep': {'test_10crop': True, 'params': {'resize_size': 256, 'crop_size': 224}}, 'loss': {'lambda_transfer': 1.0, 'lambda_consistency': 10.0, 'ramp_up': 0.35, 'entropy': False, 'confidence': False, 'consistency': True, 'use_source_labels': True, 'consistency_on_domain': False}, 'consistency': {'aug_severity': 1, 'num_augs': 4, 'possible_augs': -1}, 'mean_teacher': False, 'output_for_test': True, 'snapshot_interval': 5000, 'output_path': 'snapshot/run5_officehome_rwcl', 'out_file': <_io.TextIOWrapper name='snapshot/run5_officehome_rwcl/log.txt' mode='w' encoding='UTF-8'>}
iter: 00499, precision: 0.45956
iter: 00999, precision: 0.48225
iter: 01499, precision: 0.49897
iter: 01999, precision: 0.52577
iter: 02499, precision: 0.53906
iter: 02999, precision: 0.54341
iter: 03499, precision: 0.55899
iter: 03999, precision: 0.57320
iter: 04499, precision: 0.57709
iter: 04999, precision: 0.57961
iter: 05499, precision: 0.58694
iter: 05999, precision: 0.58694
iter: 06499, precision: 0.59313
iter: 06999, precision: 0.59061
iter: 07499, precision: 0.58511
iter: 07999, precision: 0.59313
iter: 08499, precision: 0.59313
iter: 08999, precision: 0.58969
iter: 09499, precision: 0.59450
iter: 09999, precision: 0.59633
iter: 10499, precision: 0.59359
iter: 10999, precision: 0.59313
iter: 11499, precision: 0.58855
iter: 11999, precision: 0.59152
iter: 12499, precision: 0.59633
iter: 12999, precision: 0.59656
iter: 13499, precision: 0.59381
iter: 13999, precision: 0.59450
iter: 14499, precision: 0.59840
iter: 14999, precision: 0.59588
iter: 15499, precision: 0.59794
iter: 15999, precision: 0.59404
iter: 16499, precision: 0.59359
iter: 16999, precision: 0.59404
iter: 17499, precision: 0.59633
iter: 17999, precision: 0.59519
iter: 18499, precision: 0.59633
iter: 18999, precision: 0.59427
iter: 19499, precision: 0.59519
iter: 19999, precision: 0.59679

 Final best acc: 0.598396 

