{'resume': None, 'train_classifier': False, 'train_classifier_on_target': False, 'method': 'TDAN', 'num_iterations': 20000, 'test_interval': 500, 'network': {'name': <class 'network.ResNetFc'>, 'params': {'resnet_name': 'ResNet50', 'use_bottleneck': True, 'bottleneck_dim': 256, 'new_cls': True, 'class_num': 65}}, 'optimizer': {'type': <class 'torch.optim.sgd.SGD'>, 'optim_params': {'lr': 0.001, 'momentum': 0.9, 'weight_decay': 0.0005, 'nesterov': True}, 'lr_type': 'inv', 'lr_param': {'lr': 0.001, 'gamma': 0.001, 'power': 0.75}}, 'dataset': 'office-home', 'data': {'source': {'list_path': 'data/office-home/Clipart.txt', 'batch_size': 36}, 'target': {'list_path': 'data/office-home/Art.txt', 'batch_size': 36}, 'test': {'list_path': 'data/office-home/Art.txt', 'batch_size': 4}}, 'prep': {'test_10crop': True, 'params': {'resize_size': 256, 'crop_size': 224}}, 'loss': {'lambda_transfer': 1.0, 'lambda_consistency': 10.0, 'ramp_up': 0.35, 'entropy': False, 'confidence': False, 'consistency': True, 'use_source_labels': True, 'consistency_on_domain': False}, 'consistency': {'aug_severity': 1, 'num_augs': 4, 'possible_augs': -1}, 'mean_teacher': False, 'output_for_test': True, 'snapshot_interval': 5000, 'output_path': 'snapshot/run5_officehome_clar', 'out_file': <_io.TextIOWrapper name='snapshot/run5_officehome_clar/log.txt' mode='w' encoding='UTF-8'>}
iter: 00499, precision: 0.54100
iter: 00999, precision: 0.54223
iter: 01499, precision: 0.55171
iter: 01999, precision: 0.55006
iter: 02499, precision: 0.55089
iter: 02999, precision: 0.56119
iter: 03499, precision: 0.57314
iter: 03999, precision: 0.57520
iter: 04499, precision: 0.57396
iter: 04999, precision: 0.58055
iter: 05499, precision: 0.58096
iter: 05999, precision: 0.59662
iter: 06499, precision: 0.58920
iter: 06999, precision: 0.59621
iter: 07499, precision: 0.59374
iter: 07999, precision: 0.59992
iter: 08499, precision: 0.59580
iter: 08999, precision: 0.59827
iter: 09499, precision: 0.60074
iter: 09999, precision: 0.60692
iter: 10499, precision: 0.61022
iter: 10999, precision: 0.61475
iter: 11499, precision: 0.62176
iter: 11999, precision: 0.61475
iter: 12499, precision: 0.62052
iter: 12999, precision: 0.61970
iter: 13499, precision: 0.62382
iter: 13999, precision: 0.62011
iter: 14499, precision: 0.62588
iter: 14999, precision: 0.62011
iter: 15499, precision: 0.62546
iter: 15999, precision: 0.62176
iter: 16499, precision: 0.62670
iter: 16999, precision: 0.62629
iter: 17499, precision: 0.62917
iter: 17999, precision: 0.62011
iter: 18499, precision: 0.62423
iter: 18999, precision: 0.62670
iter: 19499, precision: 0.62835
iter: 19999, precision: 0.62629

 Final best acc: 0.629172 

