{'resume': None, 'train_classifier': False, 'train_classifier_on_target': False, 'data_augmentation': False, 'sensitivity': False, 'vat': False, 'label_smooth': True, 'label_value': 0.5, 'method': 'TDAN', 'num_iterations': 20000, 'test_interval': 500, 'compute_beta': False, 'two_classifiers': False, 'network': {'name': <class 'network.ResNetFc'>, 'params': {'resnet_name': 'ResNet50', 'use_bottleneck': True, 'bottleneck_dim': 256, 'new_cls': True, 'two_classifiers': False, 'class_num': 31}}, 'optimizer': {'type': <class 'torch.optim.sgd.SGD'>, 'optim_params': {'lr': 0.001, 'momentum': 0.9, 'weight_decay': 0.0005, 'nesterov': True}, 'lr_type': 'inv', 'lr_param': {'lr': 0.001, 'gamma': 0.001, 'power': 0.75}}, 'dataset': 'office', 'data': {'source': {'list_path': 'data/office/dslr_list.txt', 'batch_size': 36}, 'target': {'list_path': 'data/office/amazon_list.txt', 'batch_size': 36}, 'test': {'list_path': 'data/office/amazon_list.txt', 'batch_size': 4}}, 'prep': {'test_10crop': True, 'params': {'resize_size': 256, 'crop_size': 224}}, 'loss': {'lambda_transfer': 1.0, 'lambda_consistency': 10.0, 'ramp_up': 0.35, 'entropy_weight': False, 'mse_weight': False, 'confidence': False, 'consistency': False, 'use_source_labels': True, 'consistency_on_domain': False, 'teacher_temperature': 1.0, 'random_percentage': 0.1}, 'detach_features': False, 'detach_features_gs': False, 'consistency': {'aug_severity': 1, 'num_augs': 1, 'possible_augs': -1}, 'mean_teacher': False, 'output_for_test': True, 'snapshot_interval': 5000, 'output_path': 'snapshot/da_smooth_05', 'out_file': <_io.TextIOWrapper name='snapshot/da_smooth_05/log.txt' mode='w' encoding='UTF-8'>}
iter: 00499, precision: 0.64501
iter: 00999, precision: 0.65637
iter: 01499, precision: 0.66738
iter: 01999, precision: 0.68832
iter: 02499, precision: 0.69826
iter: 02999, precision: 0.72453
iter: 03499, precision: 0.72488
iter: 03999, precision: 0.72843
iter: 04499, precision: 0.73127
iter: 04999, precision: 0.72772
iter: 05499, precision: 0.72843
iter: 05999, precision: 0.71885
iter: 06499, precision: 0.72133
iter: 06999, precision: 0.71459
iter: 07499, precision: 0.71494
iter: 07999, precision: 0.71956
iter: 08499, precision: 0.71672
iter: 08999, precision: 0.71778
iter: 09499, precision: 0.71636
iter: 09999, precision: 0.71459
iter: 10499, precision: 0.71707
iter: 10999, precision: 0.71282
iter: 11499, precision: 0.70501
iter: 11999, precision: 0.71211
iter: 12499, precision: 0.71104
iter: 12999, precision: 0.71175
iter: 13499, precision: 0.70891
iter: 13999, precision: 0.70785
iter: 14499, precision: 0.70749
iter: 14999, precision: 0.70785
iter: 15499, precision: 0.70572
iter: 15999, precision: 0.70359
iter: 16499, precision: 0.70572
iter: 16999, precision: 0.70785
iter: 17499, precision: 0.70288
iter: 17999, precision: 0.70749
iter: 18499, precision: 0.70181
iter: 18999, precision: 0.70394
iter: 19499, precision: 0.70785
iter: 19999, precision: 0.70607

 Final best acc: 0.731274 

