{'resume': None, 'train_classifier': False, 'train_classifier_on_target': False, 'data_augmentation': False, 'sensitivity': False, 'vat': False, 'method': 'TDAN', 'num_iterations': 20000, 'test_interval': 500, 'compute_beta': False, 'two_classifiers': True, 'tdan_gs': True, 'network': {'name': <class 'network.ResNetFc'>, 'params': {'resnet_name': 'ResNet50', 'use_bottleneck': True, 'bottleneck_dim': 256, 'new_cls': True, 'two_classifiers': True, 'class_num': 31}}, 'optimizer': {'type': <class 'torch.optim.sgd.SGD'>, 'optim_params': {'lr': 0.001, 'momentum': 0.9, 'weight_decay': 0.0005, 'nesterov': True}, 'lr_type': 'inv', 'lr_param': {'lr': 0.001, 'gamma': 0.001, 'power': 0.75}}, 'dataset': 'office', 'data': {'source': {'list_path': 'data/office/webcam_list.txt', 'batch_size': 36}, 'target': {'list_path': 'data/office/amazon_list.txt', 'batch_size': 36}, 'test': {'list_path': 'data/office/amazon_list.txt', 'batch_size': 4}}, 'prep': {'test_10crop': True, 'params': {'resize_size': 256, 'crop_size': 224}}, 'loss': {'lambda_transfer': 1.0, 'lambda_consistency': 10.0, 'ramp_up': 0.35, 'entropy_weight': False, 'mse_weight': False, 'confidence': False, 'consistency': True, 'use_source_labels': True, 'consistency_on_domain': False, 'teacher_temperature': 1.0, 'random_percentage': 0.1}, 'detach_features': False, 'detach_features_gs': False, 'consistency': {'aug_severity': 1, 'num_augs': 4, 'possible_augs': -1}, 'mean_teacher': False, 'output_for_test': True, 'snapshot_interval': 5000, 'output_path': 'snapshot/wa_no_inductive_tsf', 'out_file': <_io.TextIOWrapper name='snapshot/wa_no_inductive_tsf/log.txt' mode='w' encoding='UTF-8'>}
iter: 00499, precision: 0.62513
iter: 00999, precision: 0.64146
iter: 01499, precision: 0.64679
iter: 01999, precision: 0.66134
iter: 02499, precision: 0.69187
iter: 02999, precision: 0.69542
iter: 03499, precision: 0.70039
iter: 03999, precision: 0.70820
iter: 04499, precision: 0.71920
iter: 04999, precision: 0.71707
iter: 05499, precision: 0.71530
iter: 05999, precision: 0.71991
iter: 06499, precision: 0.72133
iter: 06999, precision: 0.72133
iter: 07499, precision: 0.72595
iter: 07999, precision: 0.72914
iter: 08499, precision: 0.72382
iter: 08999, precision: 0.72524
iter: 09499, precision: 0.72382
iter: 09999, precision: 0.72382
iter: 10499, precision: 0.72204
iter: 10999, precision: 0.72417
iter: 11499, precision: 0.72488
iter: 11999, precision: 0.72488
iter: 12499, precision: 0.72595
iter: 12999, precision: 0.72240
iter: 13499, precision: 0.72169
iter: 13999, precision: 0.72453
iter: 14499, precision: 0.72346
iter: 14999, precision: 0.72772
iter: 15499, precision: 0.72595
iter: 15999, precision: 0.72701
iter: 16499, precision: 0.72524
iter: 16999, precision: 0.72808
iter: 17499, precision: 0.72524
iter: 17999, precision: 0.72808
iter: 18499, precision: 0.72595
iter: 18999, precision: 0.72524
iter: 19499, precision: 0.72701
iter: 19999, precision: 0.72701

 Final best acc: 0.729144 

